%YAML 1.1
%TAG !u! tag:unity3d.com,2011:
--- !u!114 &11400000
MonoBehaviour:
  m_ObjectHideFlags: 0
  m_CorrespondingSourceObject: {fileID: 0}
  m_PrefabInstance: {fileID: 0}
  m_PrefabAsset: {fileID: 0}
  m_GameObject: {fileID: 0}
  m_Enabled: 1
  m_EditorHideFlags: 0
  m_Script: {fileID: 11500000, guid: 32733dc3ba164a9f9f367a568c7214a5, type: 3}
  m_Name: Player 2
  m_EditorClassIdentifier: 
  fireRate: 1.5
  maxHp: 230
  name: Defender
  damage: 10
  vision: 7
  speed: 3
  maxHungry: 30
  hungryReduce: 1
  Sound: {fileID: 8300000, guid: 60b0919624bd0b94c9a041f48ecda844, type: 3}
