%YAML 1.1
%TAG !u! tag:unity3d.com,2011:
--- !u!114 &11400000
MonoBehaviour:
  m_ObjectHideFlags: 0
  m_CorrespondingSourceObject: {fileID: 0}
  m_PrefabInstance: {fileID: 0}
  m_PrefabAsset: {fileID: 0}
  m_GameObject: {fileID: 0}
  m_Enabled: 1
  m_EditorHideFlags: 0
  m_Script: {fileID: 11500000, guid: 32733dc3ba164a9f9f367a568c7214a5, type: 3}
  m_Name: Player 4
  m_EditorClassIdentifier: 
  fireRate: 3
  maxHp: 60
  name: Sniper
  damage: 80
  vision: 18
  speed: 4
  maxHungry: 25
  hungryReduce: 1
  Sound: {fileID: 8300000, guid: 6c57fee0e1878f2448f1895651b5ffe7, type: 3}
