%YAML 1.1
%TAG !u! tag:unity3d.com,2011:
--- !u!114 &11400000
MonoBehaviour:
  m_ObjectHideFlags: 0
  m_CorrespondingSourceObject: {fileID: 0}
  m_PrefabInstance: {fileID: 0}
  m_PrefabAsset: {fileID: 0}
  m_GameObject: {fileID: 0}
  m_Enabled: 1
  m_EditorHideFlags: 0
  m_Script: {fileID: 11500000, guid: ee9706fe9e87498db76e34a5ca99b577, type: 3}
  m_Name: Day14
  m_EditorClassIdentifier: 
  set1: Set 1
  Time1: 870
  Enemies11: 7
  EnemyForm11: 0
  Enemies12: 4
  EnemyForm12: 1
  Enemies13: 2
  EnemyForm13: 2
  Enemies14: 0
  EnemyForm14: 0
  set2: Set 2
  Time2: 960
  Enemies21: 5
  EnemyForm21: 0
  Enemies22: 8
  EnemyForm22: 8
  Enemies23: 1
  EnemyForm23: 2
  Enemies24: 0
  EnemyForm24: 0
  set3: Set 3
  Time3: 1050
  Enemies31: 7
  EnemyForm31: 0
  Enemies32: 6
  EnemyForm32: 1
  Enemies33: 1
  EnemyForm33: 2
  Enemies34: 0
  EnemyForm34: 0
