%YAML 1.1
%TAG !u! tag:unity3d.com,2011:
--- !u!114 &11400000
MonoBehaviour:
  m_ObjectHideFlags: 0
  m_CorrespondingSourceObject: {fileID: 0}
  m_PrefabInstance: {fileID: 0}
  m_PrefabAsset: {fileID: 0}
  m_GameObject: {fileID: 0}
  m_Enabled: 1
  m_EditorHideFlags: 0
  m_Script: {fileID: 11500000, guid: ee9706fe9e87498db76e34a5ca99b577, type: 3}
  m_Name: Day2
  m_EditorClassIdentifier: 
  set1: 'Set 1 '
  Time1: 870
  Enemies11: 2
  EnemyForm11: 0
  Enemies12: 0
  EnemyForm12: 0
  Enemies13: 0
  EnemyForm13: 0
  Enemies14: 0
  EnemyForm14: 0
  set2: Set 2
  Time2: 1080
  Enemies21: 2
  EnemyForm21: 0
  Enemies22: 0
  EnemyForm22: 0
  Enemies23: 0
  EnemyForm23: 0
  Enemies24: 0
  EnemyForm24: 0
  set3: 1050
  Time3: 1
  Enemies31: 0
  EnemyForm31: 0
  Enemies32: 0
  EnemyForm32: 0
  Enemies33: 0
  EnemyForm33: 0
  Enemies34: 0
  EnemyForm34: 0
