%YAML 1.1
%TAG !u! tag:unity3d.com,2011:
--- !u!74 &7400000
AnimationClip:
  m_ObjectHideFlags: 0
  m_CorrespondingSourceObject: {fileID: 0}
  m_PrefabInstance: {fileID: 0}
  m_PrefabAsset: {fileID: 0}
  m_Name: HorderWalk
  serializedVersion: 6
  m_Legacy: 0
  m_Compressed: 0
  m_UseHighQualityCurve: 1
  m_RotationCurves: []
  m_CompressedRotationCurves: []
  m_EulerCurves: []
  m_PositionCurves: []
  m_ScaleCurves: []
  m_FloatCurves: []
  m_PPtrCurves:
  - curve:
    - time: 0
      value: {fileID: 21300000, guid: c0939884e3692c44a8a5ca6c33998112, type: 3}
    - time: 0.18333334
      value: {fileID: 21300000, guid: 7b2785b96587a1b40a3dc88c0eeaaec5, type: 3}
    - time: 0.38333333
      value: {fileID: 21300000, guid: 676e868e4a05494458396e2570ca3484, type: 3}
    - time: 0.53333336
      value: {fileID: 21300000, guid: 547c3f66e39d05a4d90757d9e8ff42c3, type: 3}
    - time: 0.71666664
      value: {fileID: 21300000, guid: 7636fda99a816284583df999382f0b3a, type: 3}
    - time: 0.8833333
      value: {fileID: 21300000, guid: c9b0a285f18209e428b231266e22c75e, type: 3}
    - time: 1.0666667
      value: {fileID: 21300000, guid: ee9f2a05dc6a6614a9ef4afa9db1fe9c, type: 3}
    - time: 1.25
      value: {fileID: 21300000, guid: 9047cc9fca0f25247b64d19d86adc67f, type: 3}
    attribute: m_Sprite
    path: 
    classID: 212
    script: {fileID: 0}
  m_SampleRate: 60
  m_WrapMode: 0
  m_Bounds:
    m_Center: {x: 0, y: 0, z: 0}
    m_Extent: {x: 0, y: 0, z: 0}
  m_ClipBindingConstant:
    genericBindings:
    - serializedVersion: 2
      path: 0
      attribute: 0
      script: {fileID: 0}
      typeID: 212
      customType: 23
      isPPtrCurve: 1
    pptrCurveMapping:
    - {fileID: 21300000, guid: c0939884e3692c44a8a5ca6c33998112, type: 3}
    - {fileID: 21300000, guid: 7b2785b96587a1b40a3dc88c0eeaaec5, type: 3}
    - {fileID: 21300000, guid: 676e868e4a05494458396e2570ca3484, type: 3}
    - {fileID: 21300000, guid: 547c3f66e39d05a4d90757d9e8ff42c3, type: 3}
    - {fileID: 21300000, guid: 7636fda99a816284583df999382f0b3a, type: 3}
    - {fileID: 21300000, guid: c9b0a285f18209e428b231266e22c75e, type: 3}
    - {fileID: 21300000, guid: ee9f2a05dc6a6614a9ef4afa9db1fe9c, type: 3}
    - {fileID: 21300000, guid: 9047cc9fca0f25247b64d19d86adc67f, type: 3}
  m_AnimationClipSettings:
    serializedVersion: 2
    m_AdditiveReferencePoseClip: {fileID: 0}
    m_AdditiveReferencePoseTime: 0
    m_StartTime: 0
    m_StopTime: 1.2666667
    m_OrientationOffsetY: 0
    m_Level: 0
    m_CycleOffset: 0
    m_HasAdditiveReferencePose: 0
    m_LoopTime: 1
    m_LoopBlend: 0
    m_LoopBlendOrientation: 0
    m_LoopBlendPositionY: 0
    m_LoopBlendPositionXZ: 0
    m_KeepOriginalOrientation: 0
    m_KeepOriginalPositionY: 1
    m_KeepOriginalPositionXZ: 0
    m_HeightFromFeet: 0
    m_Mirror: 0
  m_EditorCurves: []
  m_EulerEditorCurves: []
  m_HasGenericRootTransform: 0
  m_HasMotionFloatCurves: 0
  m_Events: []
