%YAML 1.1
%TAG !u! tag:unity3d.com,2011:
--- !u!78 &1
TagManager:
  serializedVersion: 2
  tags:
  - Target
  - NonActionHome
  - ActionHome
  - Building
  - Enemy
  - Bullet
  - Foot
  - Ladder
  - TwoFloor
  - Barricade
  - Material
  - SpawnPoint
  - Action2
  layers:
  - Default
  - TransparentFX
  - Ignore Raycast
  - 
  - Water
  - UI
  - 
  - Material
  - Player
  - Screen
  - Home
  - Bullet
  - Enemy
  - EyeFire
  - Ladder
  - OnWork
  - 
  - 
  - 
  - 
  - 
  - 
  - 
  - 
  - 
  - 
  - 
  - 
  - 
  - 
  - 
  - 
  m_SortingLayers:
  - name: Default
    uniqueID: 0
    locked: 0
