{
  "project_info": {
    "project_number": "741666700710",
    "project_id": "login-thevoid",
    "storage_bucket": "login-thevoid.appspot.com"
  },
  "client": [
    {
      "client_info": {
        "mobilesdk_app_id": "1:741666700710:android:8ea23dd62258139793a367",
        "android_client_info": {
          "package_name": "com.DefaultCompany.TestMoveCharacter.TheVoid"
        }
      },
      "oauth_client": [
        {
          "client_id": "741666700710-9dkl7rj90p1q0hm88faf98rg6ubem1m8.apps.googleusercontent.com",
          "client_type": 3
        }
      ],
      "api_key": [
        {
          "current_key": "AIzaSyCDE3tLq5SOY3Tcd3Nyi6LgWoXRCE_-9a0"
        }
      ],
      "services": {
        "appinvite_service": {
          "other_platform_oauth_client": [
            {
              "client_id": "741666700710-9dkl7rj90p1q0hm88faf98rg6ubem1m8.apps.googleusercontent.com",
              "client_type": 3
            }
          ]
        }
      }
    }
  ],
  "configuration_version": "1"
}